0 info it worked if it ends with ok
1 verbose cli [ 'C:\\Program Files\\nodejs\\node.exe',
1 verbose cli   'C:\\Program Files\\nodejs\\node_modules\\npm\\bin\\npm-cli.js',
1 verbose cli   'run',
1 verbose cli   'start' ]
2 info using npm@3.10.10
3 info using node@v6.9.4
4 verbose run-script [ 'prestart', 'start', 'poststart' ]
5 info lifecycle quickstart_api@1.0.0~prestart: quickstart_api@1.0.0
6 silly lifecycle quickstart_api@1.0.0~prestart: no script for prestart, continuing
7 info lifecycle quickstart_api@1.0.0~start: quickstart_api@1.0.0
8 verbose lifecycle quickstart_api@1.0.0~start: unsafe-perm in lifecycle true
9 verbose lifecycle quickstart_api@1.0.0~start: PATH: C:\Program Files\nodejs\node_modules\npm\bin\node-gyp-bin;F:\cours\node\quickstart_api\node_modules\.bin;C:\Program Files (x86)\NVIDIA Corporation\PhysX\Common;C:\ProgramData\Oracle\Java\javapath;C:\WINDOWS\system32;C:\WINDOWS;C:\WINDOWS\System32\Wbem;C:\WINDOWS\System32\WindowsPowerShell\v1.0\;C:\Program Files\nodejs\;C:\Program Files\Git\cmd;C:\ProgramData\chocolatey\bin;C:\Program Files\Java\jdk1.8.0_121\bin;C:\ProgramData\ComposerSetup\bin;C:\Program Files\PuTTY\;E:\wamp64\bin\php\php7.0.10;C:\Users\korwi\AppData\Local\Microsoft\WindowsApps;C:\Users\korwi\AppData\Local\atom\bin;C:\Users\korwi\AppData\Roaming\npm;C:\Users\korwi\AppData\Local\Android\android-sdk\tools;C:\Users\korwi\AppData\Local\Android\android-sdk\platform-tools;C:\Users\korwi\AppData\Roaming\Composer\vendor\bin;E:\wamp64\bin\php\php7.0.10;C:\Users\korwi\AppData\Local\Microsoft\WindowsApps;
10 verbose lifecycle quickstart_api@1.0.0~start: CWD: F:\cours\node\quickstart_api
11 silly lifecycle quickstart_api@1.0.0~start: Args: [ '/d /s /c', 'nodemon server.js' ]
12 verbose stack Error: kill ENOSYS
12 verbose stack     at exports._errnoException (util.js:1022:11)
12 verbose stack     at process.kill (internal/process.js:172:13)
12 verbose stack     at process.listener (C:\Program Files\nodejs\node_modules\npm\node_modules\npmlog\node_modules\gauge\node_modules\signal-exit\index.js:86:15)
12 verbose stack     at emitNone (events.js:91:20)
12 verbose stack     at process.emit (events.js:185:7)
12 verbose stack     at processEmit (C:\Program Files\nodejs\node_modules\npm\node_modules\npmlog\node_modules\gauge\node_modules\signal-exit\index.js:146:32)
12 verbose stack     at processEmit (C:\Program Files\nodejs\node_modules\npm\node_modules\npm-registry-client\node_modules\npmlog\node_modules\gauge\node_modules\signal-exit\index.js:146:32)
12 verbose stack     at Signal.wrap.onsignal (internal/process.js:199:44)
13 verbose cwd F:\cours\node\quickstart_api
14 error Windows_NT 10.0.15063
15 error argv "C:\\Program Files\\nodejs\\node.exe" "C:\\Program Files\\nodejs\\node_modules\\npm\\bin\\npm-cli.js" "run" "start"
16 error node v6.9.4
17 error npm  v3.10.10
18 error code ENOSYS
19 error errno ENOSYS
20 error syscall kill
21 error kill ENOSYS
22 error If you need help, you may report this error at:
22 error     <https://github.com/npm/npm/issues>
23 verbose exit [ 1, true ]
